{
  "form": {
    "tag": "form",
    "name": "test"
  },
  "formFieldModel": [
    {
      "label": {
        "name": "Enter name"
      },
      "id": "name",
      "tag": "input",
      "type": "text",
      "validator": [
        {
          "key": "required",
          "value": "true"
        }
      ]
    },
    {
      "label": {
        "name": "male"
      },
      "id": "male",
      "tag": "input",
      "type": "checkbox",
      "value": "male"
    },
    {
      "label": {
        "name": "female"
      },
      "id": "female",
      "tag": "input",
      "type": "checkbox",
      "value": "female"
    },
    {
      "label": {
        "name": "choose"
      },
      "id": "choose",
      "tag": "input",
      "type": "radio",
      "value": "Cairo"
    },

    {
      "label": {
        "name": "city"
      },
      "id": "dropdown",
      "tag": "select",
      "name": "city",
      "options": [
        {
          "key": "value",
          "value": "cairo"
        },
        {
          "key": "value",
          "value": "alex"
        }
      ]
    },
    {
      "id": "submit",
      "tag": "input",
      "type": "button",
      "value": "submit",
      "action": "submit"
    },
    {
      "id": "cancel",
      "tag": "input",
      "type": "reset",
      "value": "cancel",
      "action": "reset"
    }
  ]
}